The 2020 - 2021 NBA shooting season is more surprising than you think - Connor Wieseman's Github Website
…
 nbateamsshooting_reg %>% 
  group_by(Team) %>% 
  summarise(
    FG = sum(FG), 
    FGA = sum(FGA)
    ) %>% na.omit()

## # A tibble: 31 × 3
##    Team                     FG   FGA
##    <chr>                 <dbl> <dbl>
##  1 Atlanta Hawks          40.8  87.2
##  2 Boston Celtics         41.5  88.9
##  3 Brooklyn Nets          43.1  87.3
##  4 Charlotte Hornets      39.9  87.8
##  5 Chicago Bulls          42.2  88.6
##  6 Cleveland Cavaliers    38.6  85.8
##  7 Dallas Mavericks       41.1  87.3
##  8 Denver Nuggets         43.3  89.2
##  9 Detroit Pistons        38.7  85.6
## 10 Golden State Warriors  41.3  88.2
## # … with 21 more rows
…
